A_RNA(<X>)
	parallel: A(<X0000>)  A(<X0011>)  A(<X1100>)  A(<X1111>)  
	parallel: B(<X0001 X0000 X0001><X0001 X0001 X0011>)  D(<X0100 X0000 X0100><X0100 X0100 X1100>)  D(<X0111 X0011 X0111><X0111 X0111 X1111>)  B(<X1101 X1100 X1101><X1101 X1101 X1111>)  
C(<X0101 X0001 X0111>)  
C(<X0101 X0100 X1101>)  
D(<X0101 X0000 X0101><X0101 X0101 X1111>)  

B_RNA(<X,U,X><X,X,V>)
	parallel: B(<X0000 U0000 X0000><X0000 X0000 V0000>)  B(<X0011 U0011 X0011><X0011 X0011 V0011>)  B(<X1100 U1100 X1100><X1100 X1100 V1100>)  B(<X1111 U1111 X1111><X1111 X1111 V1111>)  
	parallel: C(<X0001 U0001 X0011>)  C(<X0100 X0000 V0100>)  C(<X0111 X0011 V0111>)  C(<X1101 U1101 X1111>)  
	parallel: C(<X0001 X0000 V0001>)  C(<X0100 U0100 X1100>)  C(<X0111 U0111 X1111>)  C(<X1101 X1100 V1101>)  
	parallel: B(<X0001 U0000 X0001><X0001 X0001 V0011>)  D(<X0100 U0000 X0100><X0100 X0100 V1100>)  D(<X0111 U0011 X0111><X0111 X0111 V1111>)  B(<X1101 U1100 X1101><X1101 X1101 V1111>)  
C(<X0101 U0001 X0111>)  
C(<X0101 X0000 V0101>)  
C(<X0101 X0001 V0111>)  
C(<X0101 U0100 X1101>)  
C(<X0101 U0101 X1111>)  
C(<X0101 X0100 V1101>)  
D(<X0101 U0000 X0101><X0101 X0101 V1111>)  

C_RNA(<X,U,V>)
	parallel: C(<X0000 U0000 V0000>)  C(<X0001 U0000 V0001>)  C(<X0100 U0000 V0100>)  C(<X0101 U0000 V0101>)  C(<X0011 U0011 V0011>)  C(<X0111 U0011 V0111>)  C(<X1100 U1100 V1100>)  C(<X1101 U1100 V1101>)  C(<X1111 U1111 V1111>)  
	parallel: C(<X0001 U0001 V0011>)  C(<X0100 U0100 V1100>)  C(<X0101 U0001 V0111>)  C(<X0111 U0111 V1111>)  C(<X1101 U1101 V1111>)  
C(<X0101 U0100 V1101>)  
C(<X0101 U0101 V1111>)  

D_RNA(<X,U,X><X,X,V>)
	parallel: D(<X0000 U0000 X0000><X0000 X0000 V0000>)  D(<X0011 U0011 X0011><X0011 X0011 V0011>)  D(<X1100 U1100 X1100><X1100 X1100 V1100>)  D(<X1111 U1111 X1111><X1111 X1111 V1111>)  
	parallel: C(<X0001 U0001 X0011>)  C(<X0100 U0100 X1100>)  C(<X0111 U0111 X1111>)  C(<X1101 U1101 X1111>)  
	parallel: C(<X0001 X0000 V0001>)  C(<X0100 X0000 V0100>)  C(<X0111 X0011 V0111>)  C(<X1101 X1100 V1101>)  
	parallel: D(<X0001 U0000 X0001><X0001 X0001 V0011>)  D(<X0100 U0000 X0100><X0100 X0100 V1100>)  D(<X0111 U0011 X0111><X0111 X0111 V1111>)  D(<X1101 U1100 X1101><X1101 X1101 V1111>)  
C(<X0101 U0001 X0111>)  
C(<X0101 U0100 X1101>)  
C(<X0101 U0101 X1111>)  
C(<X0101 X0000 V0101>)  
C(<X0101 X0001 V0111>)  
C(<X0101 X0100 V1101>)  
D(<X0101 U0000 X0101><X0101 X0101 V1111>)  

